EESchema Schematic File Version 2
LIBS:power
LIBS:device
LIBS:transistors
LIBS:conn
LIBS:linear
LIBS:regul
LIBS:74xx
LIBS:cmos4000
LIBS:adc-dac
LIBS:memory
LIBS:xilinx
LIBS:microcontrollers
LIBS:dsp
LIBS:microchip
LIBS:analog_switches
LIBS:motorola
LIBS:texas
LIBS:intel
LIBS:audio
LIBS:interface
LIBS:digital-audio
LIBS:philips
LIBS:display
LIBS:cypress
LIBS:siliconi
LIBS:opto
LIBS:atmel
LIBS:contrib
LIBS:valves
LIBS:arduino_piko_v2-cache
EELAYER 25 0
EELAYER END
$Descr A4 11693 8268
encoding utf-8
Sheet 1 1
Title ""
Date ""
Rev ""
Comp ""
Comment1 ""
Comment2 ""
Comment3 ""
Comment4 ""
$EndDescr
$Comp
L ATMEGA32U4-AU U1
U 1 1 5B262BB4
P 5350 3250
F 0 "U1" H 4400 4950 50  0000 C CNN
F 1 "ATMEGA32U4-AU" H 6050 1750 50  0000 C CNN
F 2 "Housings_QFP:TQFP-44_10x10mm_Pitch0.8mm" H 5350 3250 50  0001 C CIN
F 3 "" H 6450 4350 50  0001 C CNN
	1    5350 3250
	1    0    0    -1  
$EndComp
$Comp
L C C1
U 1 1 5B262C33
P 3050 1850
F 0 "C1" H 3075 1950 50  0000 L CNN
F 1 "22p" H 3075 1750 50  0000 L CNN
F 2 "Capacitors_SMD:C_0402" H 3088 1700 50  0001 C CNN
F 3 "" H 3050 1850 50  0001 C CNN
	1    3050 1850
	1    0    0    -1  
$EndComp
$Comp
L C C2
U 1 1 5B262C98
P 3050 2250
F 0 "C2" H 3075 2350 50  0000 L CNN
F 1 "22p" H 3075 2150 50  0000 L CNN
F 2 "Capacitors_SMD:C_0402" H 3088 2100 50  0001 C CNN
F 3 "" H 3050 2250 50  0001 C CNN
	1    3050 2250
	1    0    0    -1  
$EndComp
$Comp
L C C4
U 1 1 5B262CFD
P 5800 1350
F 0 "C4" H 5825 1450 50  0000 L CNN
F 1 "100n" H 5825 1250 50  0000 L CNN
F 2 "Capacitors_SMD:C_0402" H 5838 1200 50  0001 C CNN
F 3 "" H 5800 1350 50  0001 C CNN
	1    5800 1350
	0    1    1    0   
$EndComp
$Comp
L Crystal_GND23 Y1
U 1 1 5B262D7A
P 3600 2150
F 0 "Y1" H 3725 2350 50  0000 L CNN
F 1 "Crystal_GND23" H 3725 2275 50  0000 L CNN
F 2 "Crystals:Crystal_SMD_3225-4pin_3.2x2.5mm" H 3600 2150 50  0001 C CNN
F 3 "" H 3600 2150 50  0001 C CNN
	1    3600 2150
	0    1    1    0   
$EndComp
$Comp
L USB_OTG J1
U 1 1 5B2633C9
P 2450 3100
F 0 "J1" H 2250 3550 50  0000 L CNN
F 1 "USB_OTG" H 2250 3450 50  0000 L CNN
F 2 "Connectors:USB_Micro-B" H 2600 3050 50  0001 C CNN
F 3 "" H 2600 3050 50  0001 C CNN
	1    2450 3100
	1    0    0    -1  
$EndComp
$Comp
L R R1
U 1 1 5B2634A2
P 3300 3000
F 0 "R1" V 3380 3000 50  0000 C CNN
F 1 "22" V 3300 3000 50  0000 C CNN
F 2 "Resistors_SMD:R_0402" V 3230 3000 50  0001 C CNN
F 3 "" H 3300 3000 50  0001 C CNN
	1    3300 3000
	0    1    1    0   
$EndComp
$Comp
L R R2
U 1 1 5B263503
P 3300 3200
F 0 "R2" V 3380 3200 50  0000 C CNN
F 1 "22" V 3300 3200 50  0000 C CNN
F 2 "Resistors_SMD:R_0402" V 3230 3200 50  0001 C CNN
F 3 "" H 3300 3200 50  0001 C CNN
	1    3300 3200
	0    1    1    0   
$EndComp
$Comp
L C C3
U 1 1 5B2639E5
P 3950 3500
F 0 "C3" H 3975 3600 50  0000 L CNN
F 1 "1u" H 3975 3400 50  0000 L CNN
F 2 "Capacitors_SMD:C_0402" H 3988 3350 50  0001 C CNN
F 3 "" H 3950 3500 50  0001 C CNN
	1    3950 3500
	0    -1   -1   0   
$EndComp
$Comp
L GND #PWR01
U 1 1 5B263F94
P 3750 5050
F 0 "#PWR01" H 3750 4800 50  0001 C CNN
F 1 "GND" H 3750 4900 50  0000 C CNN
F 2 "" H 3750 5050 50  0001 C CNN
F 3 "" H 3750 5050 50  0001 C CNN
	1    3750 5050
	1    0    0    -1  
$EndComp
$Comp
L Switch Sw1
U 1 1 5B264F72
P 3600 1500
F 0 "Sw1" H 3600 1400 60  0000 C CNN
F 1 "Switch" H 3600 1650 60  0000 C CNN
F 2 "Buttons_Switches_SMD:SW_SPST_B3U-3000P-B" H 3600 1500 60  0001 C CNN
F 3 "" H 3600 1500 60  0001 C CNN
	1    3600 1500
	1    0    0    -1  
$EndComp
$Comp
L R R3
U 1 1 5B26519B
P 4050 1500
F 0 "R3" V 4130 1500 50  0000 C CNN
F 1 "10k" V 4050 1500 50  0000 C CNN
F 2 "Resistors_SMD:R_0402" V 3980 1500 50  0001 C CNN
F 3 "" H 4050 1500 50  0001 C CNN
	1    4050 1500
	0    1    1    0   
$EndComp
$Comp
L GND #PWR02
U 1 1 5B265622
P 2800 1550
F 0 "#PWR02" H 2800 1300 50  0001 C CNN
F 1 "GND" H 2800 1400 50  0000 C CNN
F 2 "" H 2800 1550 50  0001 C CNN
F 3 "" H 2800 1550 50  0001 C CNN
	1    2800 1550
	1    0    0    -1  
$EndComp
$Comp
L VCC #PWR03
U 1 1 5B2657DB
P 3900 1400
F 0 "#PWR03" H 3900 1250 50  0001 C CNN
F 1 "VCC" H 3900 1550 50  0000 C CNN
F 2 "" H 3900 1400 50  0001 C CNN
F 3 "" H 3900 1400 50  0001 C CNN
	1    3900 1400
	1    0    0    -1  
$EndComp
$Comp
L VCC #PWR04
U 1 1 5B2658B3
P 5200 1100
F 0 "#PWR04" H 5200 950 50  0001 C CNN
F 1 "VCC" H 5200 1250 50  0000 C CNN
F 2 "" H 5200 1100 50  0001 C CNN
F 3 "" H 5200 1100 50  0001 C CNN
	1    5200 1100
	1    0    0    -1  
$EndComp
$Comp
L GND #PWR05
U 1 1 5B26592A
P 6050 1400
F 0 "#PWR05" H 6050 1150 50  0001 C CNN
F 1 "GND" H 6050 1250 50  0000 C CNN
F 2 "" H 6050 1400 50  0001 C CNN
F 3 "" H 6050 1400 50  0001 C CNN
	1    6050 1400
	1    0    0    -1  
$EndComp
$Comp
L Ferrite_Bead L1
U 1 1 5B265B4D
P 5400 1150
F 0 "L1" V 5250 1175 50  0000 C CNN
F 1 "Ferrite_Bead" V 5550 1150 50  0000 C CNN
F 2 "Inductors_SMD:L_0603" V 5330 1150 50  0001 C CNN
F 3 "" H 5400 1150 50  0001 C CNN
	1    5400 1150
	0    1    1    0   
$EndComp
$Comp
L VCC #PWR06
U 1 1 5B2665E5
P 4150 3800
F 0 "#PWR06" H 4150 3650 50  0001 C CNN
F 1 "VCC" H 4150 3950 50  0000 C CNN
F 2 "" H 4150 3800 50  0001 C CNN
F 3 "" H 4150 3800 50  0001 C CNN
	1    4150 3800
	1    0    0    -1  
$EndComp
$Comp
L LM1117-5.0 U2
U 1 1 5B267257
P 2750 5000
F 0 "U2" H 2850 4750 50  0000 C CNN
F 1 "LM1117-5.0" H 2750 5250 50  0000 C CNN
F 2 "TO_SOT_Packages_SMD:SOT-223" H 2750 5000 50  0001 C CNN
F 3 "" H 2750 5000 50  0001 C CNN
	1    2750 5000
	1    0    0    -1  
$EndComp
$Comp
L C C5
U 1 1 5B267AB5
P 2200 5200
F 0 "C5" H 2225 5300 50  0000 L CNN
F 1 "10u" H 2225 5100 50  0000 L CNN
F 2 "Capacitors_SMD:C_0402" H 2238 5050 50  0001 C CNN
F 3 "" H 2200 5200 50  0001 C CNN
	1    2200 5200
	1    0    0    -1  
$EndComp
$Comp
L C C6
U 1 1 5B267AF0
P 3300 5150
F 0 "C6" H 3325 5250 50  0000 L CNN
F 1 "10u" H 3325 5050 50  0000 L CNN
F 2 "Capacitors_SMD:C_0402" H 3338 5000 50  0001 C CNN
F 3 "" H 3300 5150 50  0001 C CNN
	1    3300 5150
	1    0    0    -1  
$EndComp
$Comp
L C C7
U 1 1 5B268AD3
P 4000 3950
F 0 "C7" H 4025 4050 50  0000 L CNN
F 1 "100n" H 4025 3850 50  0000 L CNN
F 2 "Capacitors_SMD:C_0402" H 4038 3800 50  0001 C CNN
F 3 "" H 4000 3950 50  0001 C CNN
	1    4000 3950
	1    0    0    -1  
$EndComp
$Comp
L VCC #PWR07
U 1 1 5B26A448
P 2400 5800
F 0 "#PWR07" H 2400 5650 50  0001 C CNN
F 1 "VCC" H 2400 5950 50  0000 C CNN
F 2 "" H 2400 5800 50  0001 C CNN
F 3 "" H 2400 5800 50  0001 C CNN
	1    2400 5800
	1    0    0    -1  
$EndComp
$Comp
L D_Schottky D1
U 1 1 6161E619
P 1850 6050
F 0 "D1" H 1850 6150 50  0000 C CNN
F 1 "D_Schottky" H 1850 5950 50  0000 C CNN
F 2 "Diodes_SMD:D_MiniMELF" H 1850 6050 50  0001 C CNN
F 3 "" H 1850 6050 50  0001 C CNN
	1    1850 6050
	0    -1   -1   0   
$EndComp
$Comp
L CONN_01X08 J3
U 1 1 61620C9F
P 7500 2050
F 0 "J3" H 7500 2500 50  0000 C CNN
F 1 "CONN_01X08" V 7600 2050 50  0000 C CNN
F 2 "Pin_Headers:Pin_Header_Angled_1x08_Pitch2.54mm" H 7500 2050 50  0001 C CNN
F 3 "" H 7500 2050 50  0001 C CNN
	1    7500 2050
	1    0    0    -1  
$EndComp
$Comp
L CONN_01X08 J5
U 1 1 61620D1D
P 7500 4300
F 0 "J5" H 7500 4750 50  0000 C CNN
F 1 "CONN_01X08" V 7600 4300 50  0000 C CNN
F 2 "Pin_Headers:Pin_Header_Angled_1x08_Pitch2.54mm" H 7500 4300 50  0001 C CNN
F 3 "" H 7500 4300 50  0001 C CNN
	1    7500 4300
	1    0    0    -1  
$EndComp
$Comp
L LED D3
U 1 1 61621284
P 4600 5650
F 0 "D3" H 4600 5750 50  0000 C CNN
F 1 "LED" H 4600 5550 50  0000 C CNN
F 2 "LEDs:LED_0603" H 4600 5650 50  0001 C CNN
F 3 "" H 4600 5650 50  0001 C CNN
	1    4600 5650
	1    0    0    -1  
$EndComp
$Comp
L LED D4
U 1 1 616212E1
P 7900 2700
F 0 "D4" H 7900 2800 50  0000 C CNN
F 1 "LED" H 7900 2600 50  0000 C CNN
F 2 "LEDs:LED_0603" H 7900 2700 50  0001 C CNN
F 3 "" H 7900 2700 50  0001 C CNN
	1    7900 2700
	1    0    0    -1  
$EndComp
$Comp
L R R5
U 1 1 61622C72
P 5000 5650
F 0 "R5" V 5080 5650 50  0000 C CNN
F 1 "620" V 5000 5650 50  0000 C CNN
F 2 "Resistors_SMD:R_0402" V 4930 5650 50  0001 C CNN
F 3 "" H 5000 5650 50  0001 C CNN
	1    5000 5650
	0    1    1    0   
$EndComp
$Comp
L R R6
U 1 1 61622DD9
P 8300 2700
F 0 "R6" V 8380 2700 50  0000 C CNN
F 1 "390" V 8300 2700 50  0000 C CNN
F 2 "Resistors_SMD:R_0402" V 8230 2700 50  0001 C CNN
F 3 "" H 8300 2700 50  0001 C CNN
	1    8300 2700
	0    1    1    0   
$EndComp
$Comp
L GND #PWR08
U 1 1 61623558
P 4300 5750
F 0 "#PWR08" H 4300 5500 50  0001 C CNN
F 1 "GND" H 4300 5600 50  0000 C CNN
F 2 "" H 4300 5750 50  0001 C CNN
F 3 "" H 4300 5750 50  0001 C CNN
	1    4300 5750
	1    0    0    -1  
$EndComp
$Comp
L VCC #PWR09
U 1 1 61623594
P 5250 5550
F 0 "#PWR09" H 5250 5400 50  0001 C CNN
F 1 "VCC" H 5250 5700 50  0000 C CNN
F 2 "" H 5250 5550 50  0001 C CNN
F 3 "" H 5250 5550 50  0001 C CNN
	1    5250 5550
	1    0    0    -1  
$EndComp
$Comp
L VCC #PWR010
U 1 1 616243D3
P 8550 2600
F 0 "#PWR010" H 8550 2450 50  0001 C CNN
F 1 "VCC" H 8550 2750 50  0000 C CNN
F 2 "" H 8550 2600 50  0001 C CNN
F 3 "" H 8550 2600 50  0001 C CNN
	1    8550 2600
	1    0    0    -1  
$EndComp
$Comp
L GND #PWR011
U 1 1 61624F96
P 2550 4500
F 0 "#PWR011" H 2550 4250 50  0001 C CNN
F 1 "GND" H 2550 4350 50  0000 C CNN
F 2 "" H 2550 4500 50  0001 C CNN
F 3 "" H 2550 4500 50  0001 C CNN
	1    2550 4500
	1    0    0    -1  
$EndComp
$Comp
L VCC #PWR012
U 1 1 616250A2
P 2550 3850
F 0 "#PWR012" H 2550 3700 50  0001 C CNN
F 1 "VCC" H 2550 4000 50  0000 C CNN
F 2 "" H 2550 3850 50  0001 C CNN
F 3 "" H 2550 3850 50  0001 C CNN
	1    2550 3850
	1    0    0    -1  
$EndComp
$Comp
L CONN_01X10 J4
U 1 1 61627149
P 7500 3300
F 0 "J4" H 7500 3850 50  0000 C CNN
F 1 "CONN_01X10" V 7600 3300 50  0000 C CNN
F 2 "Pin_Headers:Pin_Header_Angled_1x10_Pitch2.54mm" H 7500 3300 50  0001 C CNN
F 3 "" H 7500 3300 50  0001 C CNN
	1    7500 3300
	1    0    0    -1  
$EndComp
$Comp
L CONN_02X03 J2
U 1 1 616283FC
P 2900 4200
F 0 "J2" H 2900 4400 50  0000 C CNN
F 1 "CONN_02X03" H 2900 4000 50  0000 C CNN
F 2 "Pin_Headers:Pin_Header_Angled_2x03_Pitch2.54mm" H 2900 3000 50  0001 C CNN
F 3 "" H 2900 3000 50  0001 C CNN
	1    2900 4200
	1    0    0    -1  
$EndComp
$Comp
L Q_PMOS_GSD Q1
U 1 1 61633ECF
P 2300 6100
F 0 "Q1" H 2500 6150 50  0000 L CNN
F 1 "Q_PMOS_GSD" H 2500 6050 50  0000 L CNN
F 2 "TO_SOT_Packages_SMD:SOT-23" H 2500 6200 50  0001 C CNN
F 3 "" H 2300 6100 50  0001 C CNN
	1    2300 6100
	1    0    0    -1  
$EndComp
$Comp
L R R4
U 1 1 616344D4
P 1650 6250
F 0 "R4" V 1730 6250 50  0000 C CNN
F 1 "100k" V 1650 6250 50  0000 C CNN
F 2 "Resistors_SMD:R_0402" V 1580 6250 50  0001 C CNN
F 3 "" H 1650 6250 50  0001 C CNN
	1    1650 6250
	0    1    1    0   
$EndComp
$Comp
L GND #PWR013
U 1 1 616359F8
P 1400 6350
F 0 "#PWR013" H 1400 6100 50  0001 C CNN
F 1 "GND" H 1400 6200 50  0000 C CNN
F 2 "" H 1400 6350 50  0001 C CNN
F 3 "" H 1400 6350 50  0001 C CNN
	1    1400 6350
	1    0    0    -1  
$EndComp
$Comp
L VCC #PWR014
U 1 1 61636444
P 3150 4900
F 0 "#PWR014" H 3150 4750 50  0001 C CNN
F 1 "VCC" H 3150 5050 50  0000 C CNN
F 2 "" H 3150 4900 50  0001 C CNN
F 3 "" H 3150 4900 50  0001 C CNN
	1    3150 4900
	1    0    0    -1  
$EndComp
$Comp
L R Zw_5v_1
U 1 1 61641E23
P 1650 5400
F 0 "Zw_5v_1" V 1730 5400 50  0000 C CNN
F 1 "0" V 1650 5400 50  0000 C CNN
F 2 "Resistors_SMD:R_0402" V 1580 5400 50  0001 C CNN
F 3 "" H 1650 5400 50  0001 C CNN
	1    1650 5400
	0    1    1    0   
$EndComp
$Comp
L GND #PWR?
U 1 1 61648612
P 3900 2650
F 0 "#PWR?" H 3900 2400 50  0001 C CNN
F 1 "GND" H 3900 2500 50  0000 C CNN
F 2 "" H 3900 2650 50  0001 C CNN
F 3 "" H 3900 2650 50  0001 C CNN
	1    3900 2650
	1    0    0    -1  
$EndComp
$Comp
L R Zw_5v_2
U 1 1 61641D7E
P 1650 5600
F 0 "Zw_5v_2" V 1730 5600 50  0000 C CNN
F 1 "0" V 1650 5600 50  0000 C CNN
F 2 "Resistors_SMD:R_0402" V 1580 5600 50  0001 C CNN
F 3 "" H 1650 5600 50  0001 C CNN
	1    1650 5600
	0    1    1    0   
$EndComp
Wire Wire Line
	2750 5300 2750 5350
Connection ~ 3800 2500
Wire Wire Line
	3900 2500 3900 2650
Wire Wire Line
	1400 6250 1400 6350
Wire Wire Line
	1500 6250 1400 6250
Connection ~ 1850 6250
Wire Wire Line
	2000 6100 2100 6100
Wire Wire Line
	2000 6250 2000 6100
Wire Wire Line
	1800 6250 2000 6250
Wire Wire Line
	1850 6200 1850 6250
Wire Wire Line
	1850 5850 1850 5900
Wire Wire Line
	1350 5850 1850 5850
Wire Wire Line
	2400 6450 2700 6450
Wire Wire Line
	2400 6300 2400 6450
Wire Wire Line
	1350 5600 1350 5850
Wire Wire Line
	2700 5400 1800 5400
Connection ~ 2050 5000
Connection ~ 1350 5000
Wire Wire Line
	1350 5000 1500 5000
Wire Wire Line
	1350 2350 1350 5400
Wire Wire Line
	1350 5400 1500 5400
Wire Wire Line
	2050 5600 2050 5000
Wire Wire Line
	1800 5000 2450 5000
Wire Wire Line
	2700 6450 2700 5400
Wire Wire Line
	2400 5900 2400 5800
Connection ~ 3150 5000
Wire Wire Line
	3150 4900 3150 5000
Wire Wire Line
	3300 5000 3050 5000
Connection ~ 2200 5000
Connection ~ 3250 4300
Wire Wire Line
	3150 4200 3250 4200
Wire Wire Line
	3250 3950 3250 4100
Connection ~ 2550 4450
Wire Wire Line
	3250 4450 2550 4450
Wire Wire Line
	3250 4200 3250 4450
Wire Wire Line
	3150 4300 3250 4300
Connection ~ 2550 3950
Wire Wire Line
	2550 3950 3250 3950
Wire Wire Line
	3250 4100 3150 4100
Wire Wire Line
	6950 4650 7300 4650
Wire Wire Line
	6950 4600 6950 4650
Wire Wire Line
	6450 4600 6950 4600
Wire Wire Line
	7000 4550 7300 4550
Wire Wire Line
	7000 4500 7000 4550
Wire Wire Line
	6450 4500 7000 4500
Wire Wire Line
	7050 4450 7300 4450
Wire Wire Line
	7050 4400 7050 4450
Wire Wire Line
	6450 4400 7050 4400
Wire Wire Line
	7100 4350 7300 4350
Wire Wire Line
	7100 4300 7100 4350
Wire Wire Line
	6450 4300 7100 4300
Wire Wire Line
	7150 4250 7300 4250
Wire Wire Line
	7150 4200 7150 4250
Wire Wire Line
	6450 4200 7150 4200
Wire Wire Line
	7200 4150 7300 4150
Wire Wire Line
	7200 4100 7200 4150
Wire Wire Line
	6450 4100 7200 4100
Wire Wire Line
	7150 4050 7300 4050
Wire Wire Line
	7150 3900 7150 4050
Wire Wire Line
	6450 3900 7150 3900
Wire Wire Line
	7200 3950 7300 3950
Wire Wire Line
	7200 3800 7200 3950
Wire Wire Line
	6450 3800 7200 3800
Wire Wire Line
	6750 3750 7300 3750
Wire Wire Line
	6750 3600 6750 3750
Wire Wire Line
	6450 3600 6750 3600
Wire Wire Line
	6800 3650 7300 3650
Wire Wire Line
	6800 3500 6800 3650
Wire Wire Line
	6450 3500 6800 3500
Wire Wire Line
	6850 3550 7300 3550
Wire Wire Line
	6850 3400 6850 3550
Wire Wire Line
	6450 3400 6850 3400
Wire Wire Line
	6900 3450 7300 3450
Wire Wire Line
	6900 3300 6900 3450
Wire Wire Line
	6450 3300 6900 3300
Wire Wire Line
	6950 3350 7300 3350
Wire Wire Line
	6950 3200 6950 3350
Wire Wire Line
	6450 3200 6950 3200
Wire Wire Line
	7000 3250 7300 3250
Wire Wire Line
	7000 3100 7000 3250
Wire Wire Line
	6450 3100 7000 3100
Wire Wire Line
	7050 3150 7300 3150
Wire Wire Line
	7050 3000 7050 3150
Wire Wire Line
	6450 3000 7050 3000
Wire Wire Line
	7100 3050 7300 3050
Wire Wire Line
	7100 2900 7100 3050
Wire Wire Line
	6450 2900 7100 2900
Connection ~ 7150 2700
Wire Wire Line
	7150 2950 7150 2700
Wire Wire Line
	7300 2950 7150 2950
Wire Wire Line
	7200 2850 7300 2850
Wire Wire Line
	7200 2600 7200 2850
Wire Wire Line
	6450 2600 7200 2600
Wire Wire Line
	7300 2400 6450 2400
Wire Wire Line
	7300 2300 6450 2300
Wire Wire Line
	6450 2200 7300 2200
Wire Wire Line
	7300 2100 6450 2100
Wire Wire Line
	6450 2000 7300 2000
Wire Wire Line
	7300 1900 6450 1900
Wire Wire Line
	6450 1800 7300 1800
Wire Wire Line
	6450 1700 7300 1700
Wire Wire Line
	2550 4300 2550 4500
Wire Wire Line
	2650 4300 2550 4300
Wire Wire Line
	2550 3850 2550 4100
Wire Wire Line
	2550 4100 2650 4100
Wire Wire Line
	6450 2700 7750 2700
Wire Wire Line
	8150 2700 8050 2700
Wire Wire Line
	8550 2700 8450 2700
Wire Wire Line
	8550 2700 8550 2600
Wire Wire Line
	4300 5650 4300 5750
Wire Wire Line
	4450 5650 4300 5650
Wire Wire Line
	5250 5650 5250 5550
Wire Wire Line
	5150 5650 5250 5650
Wire Wire Line
	4750 5650 4850 5650
Connection ~ 2550 2350
Wire Wire Line
	1350 2350 2550 2350
Wire Wire Line
	2550 2650 2800 2650
Wire Wire Line
	4000 3800 4150 3800
Connection ~ 2750 5350
Connection ~ 3300 5350
Wire Wire Line
	3300 5300 3300 5350
Wire Wire Line
	3500 5350 3500 4950
Wire Wire Line
	2200 5350 3500 5350
Wire Wire Line
	4000 4100 4200 4100
Wire Wire Line
	5200 1150 5200 1100
Wire Wire Line
	5250 1150 5200 1150
Wire Wire Line
	5550 1150 5600 1150
Wire Wire Line
	6050 1350 5950 1350
Wire Wire Line
	6050 1400 6050 1350
Connection ~ 5600 1350
Wire Wire Line
	3900 1500 3900 1400
Connection ~ 4200 1650
Wire Wire Line
	3750 1650 4200 1650
Wire Wire Line
	3750 1500 3750 1650
Wire Wire Line
	4200 1500 4200 1700
Wire Wire Line
	2800 1500 2800 1550
Wire Wire Line
	3400 1500 2800 1500
Connection ~ 5250 1350
Wire Wire Line
	5150 1450 5150 1350
Connection ~ 5500 1350
Wire Wire Line
	5250 1450 5250 1350
Wire Wire Line
	5500 1350 5500 1450
Wire Wire Line
	5150 1350 5650 1350
Wire Wire Line
	5600 1150 5600 1450
Connection ~ 3750 4950
Connection ~ 4950 4950
Connection ~ 5200 4950
Wire Wire Line
	4950 4950 4950 4850
Connection ~ 5300 4950
Wire Wire Line
	5200 4950 5200 4850
Connection ~ 5400 4950
Wire Wire Line
	5300 4950 5300 4850
Wire Wire Line
	5400 4950 5400 4850
Wire Wire Line
	3500 4950 5500 4950
Wire Wire Line
	5500 4950 5500 4850
Wire Wire Line
	4100 3050 4200 3050
Wire Wire Line
	4100 3000 4100 3050
Wire Wire Line
	3450 3000 4100 3000
Wire Wire Line
	4100 3150 4200 3150
Wire Wire Line
	4100 3200 4100 3150
Wire Wire Line
	3450 3200 4100 3200
Wire Wire Line
	2750 3200 3150 3200
Wire Wire Line
	2950 3000 3150 3000
Wire Wire Line
	2950 3100 2950 3000
Wire Wire Line
	2750 3100 2950 3100
Connection ~ 2800 2900
Wire Wire Line
	2800 2650 2800 2900
Wire Wire Line
	2550 1150 2550 2650
Wire Wire Line
	4900 1150 2550 1150
Wire Wire Line
	4900 1450 4900 1150
Connection ~ 3750 3500
Wire Wire Line
	3750 3500 3750 5050
Wire Wire Line
	4200 3500 4100 3500
Wire Wire Line
	2450 3500 3800 3500
Wire Wire Line
	4200 3300 4200 3500
Wire Wire Line
	4200 2900 2750 2900
Wire Wire Line
	2850 2050 2850 2500
Wire Wire Line
	2850 2500 3900 2500
Wire Wire Line
	3800 2150 3800 2500
Connection ~ 3050 2050
Wire Wire Line
	3300 2050 2850 2050
Wire Wire Line
	3300 2150 3300 2050
Wire Wire Line
	3400 2150 3300 2150
Wire Wire Line
	3050 2000 3050 2100
Wire Wire Line
	3600 1700 3050 1700
Wire Wire Line
	3600 1700 3600 2000
Connection ~ 3600 2300
Wire Wire Line
	3250 2400 3050 2400
Wire Wire Line
	3250 2300 3250 2400
Wire Wire Line
	3250 2300 4200 2300
Wire Wire Line
	4200 2000 4200 2100
Wire Wire Line
	3600 2000 4200 2000
Wire Wire Line
	2650 4200 2200 4200
Wire Wire Line
	2200 4200 2200 5050
$Comp
L D_Schottky D2
U 1 1 6164DCC6
P 1650 5000
F 0 "D2" H 1650 5100 50  0000 C CNN
F 1 "D_Schottky_3v3" H 1650 4900 50  0000 C CNN
F 2 "Diodes_SMD:D_MiniMELF" H 1650 5000 50  0001 C CNN
F 3 "" H 1650 5000 50  0001 C CNN
	1    1650 5000
	-1   0    0    1   
$EndComp
Text Notes 7050 7050 0    394  ~ 0
Wulfix1
Wire Wire Line
	2050 5600 1800 5600
Wire Wire Line
	1350 5600 1500 5600
$EndSCHEMATC
